<svg xmlns="http://www.w3.org/2000/svg" width="19.844" height="19.844" viewBox="0 0 19.844 19.844">
  <defs>
    <style>
      .cls-1 {
        fill-rule: evenodd;
      }
    </style>
  </defs>
  <path class="cls-1" d="M396.882,27.374a0.31,0.31,0,0,0,0,.62,3.106,3.106,0,0,1,3.1,3.1,0.309,0.309,0,0,0,.09.219,0.311,0.311,0,0,0,.53-0.219A3.726,3.726,0,0,0,396.882,27.374Zm4.744,3.942a0.311,0.311,0,0,0,.53-0.219,5.274,5.274,0,0,0-5.274-5.273,0.31,0.31,0,0,0,0,.62,4.658,4.658,0,0,1,4.653,4.653A0.31,0.31,0,0,0,401.626,31.316Zm-4.744-6.423a6.2,6.2,0,0,1,6.2,6.2,0.31,0.31,0,0,0,.62,0,6.825,6.825,0,0,0-6.825-6.824A0.31,0.31,0,0,0,396.882,24.893Zm3.344,10.62,4.278,4.278c0.381-.418.779-0.892,1.184-1.42a1.059,1.059,0,0,0-.149-1.377l-2.665-2.665a1.124,1.124,0,0,0-.809-0.335,0.93,0.93,0,0,0-.674.287c-0.445.467-.759,0.8-1,1.053Zm-7.583-7.931c0.255-.236.586-0.551,1.053-1a0.931,0.931,0,0,0,.287-0.674,1.123,1.123,0,0,0-.335-0.809l-2.663-2.663a1.056,1.056,0,0,0-1.376-.147c-0.526.4-1,.8-1.42,1.184l4.274,4.274ZM404.075,40.24c-1.182,1.2-2.159,1.765-2.971,1.709-2.507-.168-6.2-2.683-9.295-5.782s-5.611-6.784-5.782-9.293c-0.053-.81.527-1.809,1.712-2.969l4.278,4.278-0.074.071-0.227-.211,0.221,0.217a1,1,0,0,0-.2,1.113,14.018,14.018,0,0,0,2.894,3.971,14.081,14.081,0,0,0,3.971,2.9,1,1,0,0,0,1.114-.2l0.08-.081Z" transform="translate(-386.031 -22.094)"/>
</svg>
