<svg xmlns="http://www.w3.org/2000/svg" width="19.781" height="19.875" viewBox="0 0 19.781 19.875">
  <defs>
    <style>
      .cls-1 {
        fill: #fff;
        fill-rule: evenodd;
      }
    </style>
  </defs>
  <path class="cls-1" d="M162.534,46.06l8.043-8.084a1.11,1.11,0,0,0,0-1.546,1.076,1.076,0,0,0-1.538,0L161,44.514l-8.044-8.084a1.09,1.09,0,0,0-1.538,1.546l8.043,8.084-8.043,8.084a1.112,1.112,0,0,0,0,1.546,1.041,1.041,0,0,0,.769.309,1.133,1.133,0,0,0,.769-0.309L161,47.606l8.043,8.084a1.042,1.042,0,0,0,.77.309,1.134,1.134,0,0,0,.768-0.309,1.11,1.11,0,0,0,0-1.546Z" transform="translate(-151.125 -36.125)"/>
</svg>
